{
  "firstName": "Anton",
  "lastName": "Nikiforov",
  "passwordHash": "c587def9bdafb3209e28da9d90f1f05b0456c7a23b17da16087696ad059ef341",
  "formOfStudy": "O",
  "iHaveReadTheRulesOfTheCourse": true
}